Designator	Footprint	Mid X	Mid Y	Ref X	Ref Y	Pad X	Pad Y	Layer	Rotation	Comment
"C1"	"CAP-SMD_L6.0-W3.2-R-RD"	"14.35mm"	"53.47mm"	"14.35mm"	"53.47mm"	"16.7mm"	"53.47mm"	"T"	"0"	"68uF"
"C2"	"CAP-SMD_BD6.3-L6.6-W6.6-FD"	"31.12mm"	"53.47mm"	"31.12mm"	"53.47mm"	"28.31mm"	"53.47mm"	"T"	"0"	"120uF"
"C3"	"C0603"	"28.07mm"	"38.99mm"	"28.07mm"	"38.99mm"	"28.07mm"	"39.69mm"	"T"	"270"	"100nF"
"D1"	"SOD-123_L2.8-W1.8-LS3.7-RD"	"17.78mm"	"49.15mm"	"17.78mm"	"49.15mm"	"17.78mm"	"50.85mm"	"T"	"270"	"1N5817W"
"L2"	"L1210"	"22.35mm"	"48.64mm"	"22.35mm"	"48.64mm"	"20.75mm"	"48.64mm"	"T"	"0"	"100uH"
"Q1"	"SC-70-3_L2.1-W1.3-P1.30-LS2.1-BR"	"35.31mm"	"43.31mm"	"35.31mm"	"43.31mm"	"34.36mm"	"43.96mm"	"T"	"180"	"BC847CW-7-F"
"Q2"	"SC-70-3_L2.1-W1.3-P1.30-LS2.1-BR"	"34.8mm"	"47.12mm"	"34.8mm"	"47.12mm"	"33.85mm"	"47.77mm"	"T"	"180"	"BC847CW-7-F"
"R5"	"R0402"	"32.13mm"	"43.69mm"	"32.13mm"	"43.69mm"	"31.63mm"	"43.69mm"	"T"	"0"	"10K"
"R6"	"R0402"	"31.62mm"	"47.75mm"	"31.62mm"	"47.75mm"	"31.12mm"	"47.75mm"	"T"	"0"	"10K"
"U2"	"SOIC-16_L9.9-W3.9-P1.27-LS6.0-BL"	"22.1mm"	"39.88mm"	"22.1mm"	"39.88mm"	"26.54mm"	"42.85mm"	"T"	"180"	"CH340B"
"R3"	"R0805"	"15.37mm"	"36.58mm"	"15.37mm"	"36.58mm"	"15.37mm"	"35.58mm"	"T"	"90"	"5.1K"
"R4"	"R0805"	"12.19mm"	"35.94mm"	"12.19mm"	"35.94mm"	"13.19mm"	"35.94mm"	"T"	"180"	"5.1K"
"USB1"	"USB-C-SMD_TYPEC-304S-ACP16"	"10.67mm"	"43.94mm"	"10.67mm"	"43.94mm"	"12.3mm"	"49.01mm"	"T"	"270"	"TYPEC-304S-ACP16"
"U1"	"SOP-8_L5.0-W4.0-P1.27-LS6.0-BL"	"22.61mm"	"53.21mm"	"22.61mm"	"53.21mm"	"25.61mm"	"51.31mm"	"T"	"90"	"LM2594M-3.3/TR"
"H1"	"HDR-TH_6P-P2.54-V-R2-C3-S2.54"	"43.31mm"	"49.02mm"	"43.31mm"	"49.02mm"	"44.58mm"	"51.56mm"	"B"	"90"	"210S-2*3P L=11.6MMGold-plated black"
